0.05	1.0	3682	3579	0.972	[0.86, 0.78, 0.68, 0.41]
0.06	1.0	3682	3579	0.972	[0.86, 0.78, 0.68, 0.41]
0.07	1.0	3682	3579	0.972	[0.86, 0.78, 0.68, 0.41]
0.08	1.0	3682	3579	0.972	[0.86, 0.79, 0.68, 0.41]
0.09	1.0	3682	3579	0.972	[0.86, 0.79, 0.68, 0.42]
0.1	1.0	3682	3579	0.972	[0.87, 0.79, 0.69, 0.42]
0.11	1.0	3682	3579	0.972	[0.87, 0.79, 0.69, 0.42]
0.12	1.0	3682	3574	0.971	[0.88, 0.8, 0.7, 0.42]
0.13	1.0	3682	3573	0.97	[0.89, 0.8, 0.71, 0.43]
0.14	1.0	3682	3573	0.97	[0.89, 0.8, 0.71, 0.43]
0.15	1.0	3682	3571	0.97	[0.9, 0.82, 0.72, 0.44]
0.16	1.0	3682	3571	0.97	[0.9, 0.82, 0.73, 0.45]
0.17	1.0	3682	3570	0.97	[0.91, 0.83, 0.73, 0.46]
0.18	1.0	3682	3570	0.97	[0.91, 0.83, 0.73, 0.46]
0.19	1.0	3682	3570	0.97	[0.91, 0.83, 0.74, 0.47]
0.2	1.0	3682	3570	0.97	[0.91, 0.83, 0.74, 0.47]
0.21	1.0	3682	3565	0.968	[0.92, 0.84, 0.76, 0.48]
0.22	1.0	3682	3564	0.968	[0.92, 0.84, 0.76, 0.49]
0.23	1.0	3682	3564	0.968	[0.92, 0.84, 0.76, 0.49]
0.24	1.0	3682	3563	0.968	[0.92, 0.84, 0.77, 0.5]
0.25	1.0	3682	3563	0.968	[0.92, 0.84, 0.77, 0.5]
0.26	1.0	3682	3553	0.965	[0.93, 0.86, 0.79, 0.51]
0.27	1.0	3682	3552	0.965	[0.93, 0.86, 0.79, 0.51]
0.28	1.0	3682	3552	0.965	[0.93, 0.86, 0.8, 0.52]
0.29	1.0	3682	3548	0.964	[0.93, 0.86, 0.8, 0.52]
0.3	1.0	3682	3548	0.964	[0.93, 0.86, 0.8, 0.52]
0.31	1.0	3682	3548	0.964	[0.93, 0.87, 0.8, 0.53]
0.32	1.0	3682	3548	0.964	[0.93, 0.87, 0.8, 0.52]
0.33	1.0	3682	3548	0.964	[0.93, 0.87, 0.8, 0.53]
0.34	1.0	3682	3497	0.95	[0.94, 0.88, 0.83, 0.55]
0.35	1.0	3682	3497	0.95	[0.94, 0.88, 0.83, 0.55]
0.36	1.0	3682	3496	0.949	[0.94, 0.88, 0.83, 0.55]
0.37	1.0	3682	3495	0.949	[0.94, 0.88, 0.83, 0.55]
0.38	1.0	3682	3491	0.948	[0.94, 0.88, 0.83, 0.55]
0.39	1.0	3682	3490	0.948	[0.94, 0.88, 0.83, 0.56]
0.4	1.0	3682	3490	0.948	[0.94, 0.88, 0.83, 0.56]
0.41	1.0	3682	3460	0.94	[0.94, 0.89, 0.84, 0.56]
0.42	1.0	3682	3457	0.939	[0.94, 0.89, 0.84, 0.57]
0.43	1.0	3682	3455	0.938	[0.95, 0.89, 0.84, 0.57]
0.44	1.0	3682	3455	0.938	[0.95, 0.89, 0.84, 0.57]
0.45	1.0	3682	3453	0.938	[0.95, 0.9, 0.84, 0.57]
0.46	1.0	3682	3451	0.937	[0.95, 0.9, 0.85, 0.57]
0.47	1.0	3682	3450	0.937	[0.95, 0.9, 0.85, 0.58]
0.48	1.0	3682	3450	0.937	[0.95, 0.9, 0.85, 0.58]
0.49	1.0	3682	3450	0.937	[0.95, 0.9, 0.85, 0.58]
0.5	1.0	3682	3450	0.937	[0.95, 0.9, 0.85, 0.58]
