0.05	2.0	36360	[0.869, 0.877, 0.869, 0.942]
0.1	2.0	36360	[0.875, 0.883, 0.875, 0.942]
0.15	2.0	36360	[0.888, 0.896, 0.89, 0.941]
0.2	2.0	36360	[0.894, 0.901, 0.896, 0.941]
0.25	2.0	36360	[0.9, 0.908, 0.903, 0.939]
0.3	2.0	36360	[0.917, 0.923, 0.921, 0.935]
0.35	2.0	36360	[0.93, 0.934, 0.933, 0.924]
0.4	2.0	36360	[0.931, 0.935, 0.934, 0.923]
0.45	2.0	36360	[0.936, 0.939, 0.939, 0.918]
0.5	2.0	36360	[0.936, 0.94, 0.939, 0.917]
