0.05	1.0	36360	[0.821, 0.837, 0.823, 0.846]
0.1	1.0	36360	[0.827, 0.843, 0.83, 0.846]
0.15	1.0	36360	[0.843, 0.859, 0.849, 0.843]
0.2	1.0	36360	[0.85, 0.865, 0.857, 0.84]
0.25	1.0	36360	[0.862, 0.877, 0.87, 0.835]
0.3	1.0	36360	[0.874, 0.887, 0.883, 0.824]
0.35	1.0	36360	[0.889, 0.901, 0.898, 0.789]
0.4	1.0	36360	[0.89, 0.902, 0.899, 0.788]
0.45	1.0	36360	[0.898, 0.909, 0.907, 0.775]
0.5	1.0	36360	[0.898, 0.91, 0.908, 0.774]
