0.05	2.0	318	312	0.981	[0.85, 0.78, 0.7, 0.51]
0.06	2.0	318	311	0.978	[0.85, 0.78, 0.7, 0.51]
0.07	2.0	318	311	0.978	[0.85, 0.78, 0.7, 0.51]
0.08	2.0	318	311	0.978	[0.86, 0.79, 0.71, 0.51]
0.09	2.0	318	311	0.978	[0.86, 0.79, 0.71, 0.51]
0.1	2.0	318	311	0.978	[0.85, 0.78, 0.7, 0.51]
0.11	2.0	318	311	0.978	[0.86, 0.78, 0.71, 0.52]
0.12	2.0	318	311	0.978	[0.86, 0.78, 0.71, 0.52]
0.13	2.0	318	311	0.978	[0.86, 0.79, 0.72, 0.53]
0.14	2.0	318	310	0.975	[0.86, 0.79, 0.72, 0.53]
0.15	2.0	318	308	0.969	[0.88, 0.8, 0.72, 0.53]
0.16	2.0	318	308	0.969	[0.88, 0.8, 0.72, 0.53]
0.17	2.0	318	304	0.956	[0.88, 0.81, 0.73, 0.54]
0.18	2.0	318	304	0.956	[0.88, 0.81, 0.73, 0.54]
0.19	2.0	318	304	0.956	[0.88, 0.81, 0.73, 0.54]
0.2	2.0	318	304	0.956	[0.88, 0.81, 0.73, 0.54]
0.21	2.0	318	302	0.95	[0.89, 0.82, 0.75, 0.57]
0.22	2.0	318	302	0.95	[0.89, 0.82, 0.75, 0.57]
0.23	2.0	318	301	0.947	[0.89, 0.83, 0.76, 0.56]
0.24	2.0	318	301	0.947	[0.9, 0.83, 0.76, 0.57]
0.25	2.0	318	301	0.947	[0.9, 0.83, 0.76, 0.57]
0.26	2.0	318	299	0.94	[0.91, 0.86, 0.8, 0.6]
0.27	2.0	318	299	0.94	[0.91, 0.86, 0.8, 0.6]
0.28	2.0	318	299	0.94	[0.91, 0.86, 0.8, 0.6]
0.29	2.0	318	299	0.94	[0.9, 0.85, 0.79, 0.6]
0.3	2.0	318	299	0.94	[0.9, 0.85, 0.79, 0.6]
0.31	2.0	318	299	0.94	[0.9, 0.85, 0.79, 0.6]
0.32	2.0	318	299	0.94	[0.9, 0.85, 0.79, 0.6]
0.33	2.0	318	299	0.94	[0.9, 0.85, 0.79, 0.6]
0.34	2.0	318	292	0.918	[0.94, 0.9, 0.85, 0.66]
0.35	2.0	318	292	0.918	[0.94, 0.9, 0.85, 0.66]
0.36	2.0	318	292	0.918	[0.94, 0.9, 0.85, 0.66]
0.37	2.0	318	292	0.918	[0.94, 0.9, 0.85, 0.66]
0.38	2.0	318	292	0.918	[0.94, 0.9, 0.85, 0.66]
0.39	2.0	318	292	0.918	[0.94, 0.9, 0.85, 0.66]
0.4	2.0	318	292	0.918	[0.94, 0.9, 0.85, 0.66]
0.41	2.0	318	286	0.899	[0.95, 0.91, 0.86, 0.67]
0.42	2.0	318	286	0.899	[0.95, 0.91, 0.86, 0.67]
0.43	2.0	318	285	0.896	[0.95, 0.92, 0.86, 0.68]
0.44	2.0	318	285	0.896	[0.95, 0.92, 0.86, 0.68]
0.45	2.0	318	284	0.893	[0.95, 0.92, 0.86, 0.68]
0.46	2.0	318	284	0.893	[0.95, 0.92, 0.86, 0.68]
0.47	2.0	318	284	0.893	[0.95, 0.92, 0.86, 0.68]
0.48	2.0	318	284	0.893	[0.95, 0.92, 0.86, 0.68]
0.49	2.0	318	284	0.893	[0.95, 0.92, 0.86, 0.68]
0.5	2.0	318	284	0.893	[0.95, 0.92, 0.86, 0.68]
